{
    "fsrMinCompatibility": "7.2.0",
    "date": "2024-02-15T06:21:53+00:00",
    "exported_from": "soln-avit-vmw-1.fortisoar.in",
    "exported_by": "Playbook",
    "contents": {
        "views": {
            "navigation": [
                "Dashboard",
                "Queue & Shift Management",
                "Incident Response",
                "Automation",
                "Resources",
                "Reports",
                "Widget Library",
                "Content Hub",
                "Help",
                "User Community"
            ]
        },
        "recordSets": [
            {
                "name": null,
                "apiName": "export_templates",
                "count": 1
            }
        ],
        "appSettings": [
            {
                "name": "systemSettings"
            },
            {
                "name": "LDAP"
            },
            {
                "name": "RADIUS"
            },
            {
                "name": "TOKEN"
            },
            {
                "name": "HA"
            },
            {
                "name": "sso"
            },
            {
                "name": "syslog"
            },
            {
                "name": "proxy"
            }
        ]
    }
}