[
    {
        "type": "systemSettings",
        "value": {
            "@context": "\/api\/3\/contexts\/SystemSettings",
            "@id": "\/api\/3\/system_settings\/845c05cc-05b3-450e-9afb-df6b6e436321",
            "@type": "SystemSettings",
            "name": null,
            "privateValues": {
                "user": {
                    "global": {
                        "timezone": {
                            "timezone_type": 3
                        }
                    }
                },
                "authentication": {
                    "sitekey": "6Lc75kcUAAAAAHg7-4xLEcTfzryh64REbPr_CRqo",
                    "loginMessage": "All material beyond this point is to be viewed only by users authorized by FortiSOAR."
                }
            },
            "globalValues": null,
            "restriction": null,
            "sections": [
                {
                    "@id": "\/api\/3\/system_settings\/18f3043e-c1e4-4041-bba3-d481ea86d1b5",
                    "@type": "SystemSettings",
                    "name": "TAXII Server Details",
                    "privateValues": null,
                    "globalValues": null,
                    "restriction": null,
                    "sections": [],
                    "parent": "\/api\/3\/system_settings\/845c05cc-05b3-450e-9afb-df6b6e436321",
                    "uuid": "18f3043e-c1e4-4041-bba3-d481ea86d1b5",
                    "publicValues": {
                        "status": {
                            "enabled": false
                        }
                    }
                },
                {
                    "@id": "\/api\/3\/system_settings\/6494eed7-e4e1-475a-bdeb-ac53cae6b63b",
                    "@type": "SystemSettings",
                    "name": "Restricted File Mime-types",
                    "privateValues": null,
                    "globalValues": null,
                    "restriction": null,
                    "sections": [],
                    "parent": "\/api\/3\/system_settings\/845c05cc-05b3-450e-9afb-df6b6e436321",
                    "uuid": "6494eed7-e4e1-475a-bdeb-ac53cae6b63b",
                    "publicValues": {
                        "values": [
                            "image\/svg",
                            "image\/svg+xml"
                        ]
                    }
                }
            ],
            "parent": null,
            "uuid": "845c05cc-05b3-450e-9afb-df6b6e436321",
            "publicValues": {
                "user": {
                    "view": {
                        "theme": "light"
                    },
                    "phone": {
                        "countryId": "US"
                    },
                    "notifications": {
                        "sms": false,
                        "web": false,
                        "email": true,
                        "commentMentionEmailNotifications": true,
                        "enableCommentMentionNotifications": true
                    }
                },
                "playbook": {
                    "logs": {
                        "tags": [
                            {
                                "uuid": "system"
                            }
                        ],
                        "filterOpration": "exclude"
                    },
                    "autosave": true,
                    "autosaveTime": 15,
                    "enableJinjaToTag": true
                },
                "dateFormat": {
                    "formatValue": "MM\/dd\/yyyy"
                },
                "navigation": {
                    "collapsed": true
                },
                "globalFilters": {
                    "people": {
                        "showActiveUsers": true
                    }
                },
                "bin_ttl_config": {
                    "ttl": 15,
                    "enabled": false,
                    "restrictHardDelete": false
                },
                "datetimeFormat": {
                    "formatValue": "MM\/dd\/yyyy hh:mm a"
                },
                "recommendation": {
                    "strategy": "falconBased"
                },
                "onboarding_guide": {
                    "enabled": false
                },
                "auditlog_ttl_config": {
                    "ttl": 0,
                    "enabled": false
                },
                "commentModification": {
                    "enabled": true,
                    "softDelete": true,
                    "timeWindow": 300
                },
                "workflow_log_config": {
                    "debug": true,
                    "failed_workflow": false,
                    "allow_pb_to_override": false
                },
                "workflow_ttl_config": {
                    "ttl": 15,
                    "enabled": true
                },
                "workflow_vacuum_config": {
                    "ttl": "7",
                    "enabled": true
                }
            }
        }
    },
    {
        "type": "LDAP",
        "value": [
            {
                "id": 13,
                "section": "LDAP",
                "key": "container",
                "dataType": "string",
                "value": "Users"
            },
            {
                "id": 15,
                "section": "LDAP",
                "key": "ou",
                "dataType": "string",
                "value": null
            },
            {
                "id": 16,
                "section": "LDAP",
                "key": "min_query_len",
                "dataType": "int",
                "value": 3
            },
            {
                "id": 17,
                "section": "LDAP",
                "key": "reader_bind_name",
                "dataType": "string",
                "value": ""
            },
            {
                "id": 19,
                "section": "LDAP",
                "key": "search_attributes",
                "dataType": "string",
                "value": ""
            },
            {
                "id": 20,
                "section": "LDAP",
                "key": "search_base",
                "dataType": "string",
                "value": ""
            },
            {
                "id": 21,
                "section": "LDAP",
                "key": "search_recursive",
                "dataType": "boolean",
                "value": false
            },
            {
                "id": 22,
                "section": "LDAP",
                "key": "page_size",
                "dataType": "int",
                "value": 30
            },
            {
                "id": 24,
                "section": "LDAP",
                "key": "allow_user_import",
                "dataType": "boolean",
                "value": false
            },
            {
                "id": 11,
                "section": "LDAP",
                "key": "use_ssl",
                "dataType": "boolean",
                "value": true
            },
            {
                "id": 12,
                "section": "LDAP",
                "key": "servers_ports",
                "dataType": "string",
                "value": ""
            },
            {
                "id": 14,
                "section": "LDAP",
                "key": "domain_components",
                "dataType": "string",
                "value": "TEST, LOCAL"
            },
            {
                "id": 23,
                "section": "LDAP",
                "key": "user_map",
                "dataType": "string",
                "value": "[{\"ldapAttribute\":\"sAMAccountName\",\"csAttribute\":\"username\"},{\"ldapAttribute\":\"givenName\",\"csAttribute\":\"firstname\"},{\"ldapAttribute\":\"sn\",\"csAttribute\":\"lastname\"},{\"ldapAttribute\":\"mobile\",\"csAttribute\":\"phoneWork\"},{\"ldapAttribute\":\"mail\",\"csAttribute\":\"email\"},{\"ldapAttribute\":\"userPrincipalName\",\"csAttribute\":\"bind_name\"}]"
            },
            {
                "id": 35,
                "section": "LDAP",
                "key": "ldap_enabled",
                "dataType": "boolean",
                "value": false
            }
        ]
    },
    {
        "type": "RADIUS",
        "value": [
            {
                "id": 52,
                "section": "RADIUS",
                "key": "enabled",
                "dataType": "boolean",
                "value": false
            },
            {
                "id": 53,
                "section": "RADIUS",
                "key": "primary_host",
                "dataType": "string",
                "value": null
            },
            {
                "id": 54,
                "section": "RADIUS",
                "key": "primary_port",
                "dataType": "string",
                "value": "1812"
            },
            {
                "id": 55,
                "section": "RADIUS",
                "key": "primary_secret",
                "dataType": "string",
                "value": null
            },
            {
                "id": 56,
                "section": "RADIUS",
                "key": "secondary_host",
                "dataType": "string",
                "value": null
            },
            {
                "id": 57,
                "section": "RADIUS",
                "key": "secondary_port",
                "dataType": "string",
                "value": "1812"
            },
            {
                "id": 58,
                "section": "RADIUS",
                "key": "secondary_secret",
                "dataType": "string",
                "value": null
            }
        ]
    },
    {
        "type": "TOKEN",
        "value": [
            {
                "id": 3,
                "section": "TOKEN",
                "key": "token_lifetime",
                "dataType": "int",
                "value": 7140
            },
            {
                "id": 27,
                "section": "TOKEN",
                "key": "max_session",
                "dataType": "int",
                "value": 1440
            },
            {
                "id": 25,
                "section": "TOKEN",
                "key": "refresh_time",
                "dataType": "int",
                "value": 15
            },
            {
                "id": 26,
                "section": "TOKEN",
                "key": "min_expiration",
                "dataType": "int",
                "value": 2
            },
            {
                "id": 29,
                "section": "TOKEN",
                "key": "no_idle_user_timeout",
                "dataType": "int",
                "value": 1440
            },
            {
                "id": 30,
                "section": "TOKEN",
                "key": "idle_time",
                "dataType": "int",
                "value": 80
            },
            {
                "id": 31,
                "section": "TOKEN",
                "key": "warning_time",
                "dataType": "int",
                "value": 119
            },
            {
                "id": 36,
                "section": "TOKEN",
                "key": "enforce_2fa",
                "dataType": "boolean",
                "value": false
            },
            {
                "id": 48,
                "section": "TOKEN",
                "key": "restricted_token_lifetime",
                "dataType": "int",
                "value": 10080
            }
        ]
    },
    {
        "type": "HA",
        "value": [
            {
                "id": 39,
                "section": "HA",
                "key": "service",
                "dataType": "string",
                "value": "smtp"
            },
            {
                "id": 40,
                "section": "HA",
                "key": "heartbeat_interval",
                "dataType": "int",
                "value": 5
            },
            {
                "id": 41,
                "section": "HA",
                "key": "missed_heartbeat_count",
                "dataType": "int",
                "value": 3
            },
            {
                "id": 38,
                "section": "HA",
                "key": "email",
                "dataType": "string",
                "value": ""
            },
            {
                "id": 37,
                "section": "HA",
                "key": "enabled",
                "dataType": "boolean",
                "value": false
            },
            {
                "id": 43,
                "section": "HA",
                "key": "memory_threshold",
                "dataType": "int",
                "value": 80
            },
            {
                "id": 44,
                "section": "HA",
                "key": "swap_memory_threshold",
                "dataType": "int",
                "value": 50
            },
            {
                "id": 45,
                "section": "HA",
                "key": "cpu_threshold",
                "dataType": "int",
                "value": 80
            },
            {
                "id": 46,
                "section": "HA",
                "key": "disk_threshold",
                "dataType": "int",
                "value": 80
            },
            {
                "id": 47,
                "section": "HA",
                "key": "workflow_threshold",
                "dataType": "int",
                "value": 100
            },
            {
                "id": 59,
                "section": "HA",
                "key": "wal_threshold",
                "dataType": "int",
                "value": 20
            },
            {
                "id": 42,
                "section": "HA",
                "key": "pg_replication_lag_threshold",
                "dataType": "int",
                "value": 3
            }
        ]
    },
    {
        "type": "sso",
        "value": {
            "id": "saml",
            "samlEnabled": false,
            "autoRedirect": false,
            "spSettings": {
                "spEntityid": "https:\/\/soln-avit-vmw-1.fortisoar.in\/api\/saml\/metadata",
                "spAcsUrl": "https:\/\/soln-avit-vmw-1.fortisoar.in\/api\/public\/saml\/login",
                "spSloRedirectUrl": "https:\/\/soln-avit-vmw-1.fortisoar.in\/logout",
                "spSloPostUrl": "https:\/\/soln-avit-vmw-1.fortisoar.in\/api\/public\/saml\/logout",
                "spX509Cert": "-----BEGIN CERTIFICATE-----\nMIIFnjCCA4YCAQAwDQYJKoZIhvcNAQENBQAwgZQxCzAJBgNVBAYTAlVTMRMwEQYD\nVQQIDApDYWxpZm9ybmlhMRIwEAYDVQQHDAlTdW5ueXZhbGUxETAPBgNVBAoMCEZv\ncnRpbmV0MRIwEAYDVQQLDAlGb3J0aVNPQVIxEDAOBgNVBAMMB2Zzci1zc28xIzAh\nBgkqhkiG9w0BCQEWFHN1cHBvcnRAZm9ydGluZXQubmV0MB4XDTIzMTIyODA5MzEw\nMFoXDTMzMTIyNTA5MzEwMFowgZQxCzAJBgNVBAYTAlVTMRMwEQYDVQQIDApDYWxp\nZm9ybmlhMRIwEAYDVQQHDAlTdW5ueXZhbGUxETAPBgNVBAoMCEZvcnRpbmV0MRIw\nEAYDVQQLDAlGb3J0aVNPQVIxEDAOBgNVBAMMB2Zzci1zc28xIzAhBgkqhkiG9w0B\nCQEWFHN1cHBvcnRAZm9ydGluZXQubmV0MIICIjANBgkqhkiG9w0BAQEFAAOCAg8A\nMIICCgKCAgEAwZDKI2rt8UYegLpPKWwtoMZSX14+2JCgup7hvQHM4XVbXwjIPYzS\nqChh\/yX8TheUVIMV2US3fqarWuRye056+\/z3\/znmUXZ1B+Ajn+1+\/XdqC0liOoJb\n5CxlXDGLWM\/iIDH3eWWDgZy7+gX6GNHqxR6gvBUC4PJ1WlgnKMMqI7gW0GifKNbY\nnruyLufwhBMfj8FccJ6HZMGTMnIbrRsC7O5ryy\/ROiMkvjcw+oeOatg8X42oygAI\nxE13bH+zel+mjbTzgeY\/db2l9325K+SgCZFdasGpMmBaDdXeecsFJoBsEN4N67hl\niZ0PqPUNyKhjs2BxagpkNzcRVRAO7769AJK1nmsktoXRX6Kev1Xma8hgTHq0j\/mu\nvRl8E3Td2\/6xXfrVU5FRgjiN1Aoma5MB1dGOqiMGZpGuMnu721UaCl8ce3tmE\/Hs\n69VtIhWX\/0Pt3obMRZ4EBpGHrHpRC0zarMCRQGt+dJzOhIGskBT9wiYHuGnV4Ty9\n6r4By4M0URzzS0d5BbJmZitv4zB4reEBj+u9+1K3BTOgrV1znMcE91K7VC0+rnpj\n5zikWdgSqb3KenAlzflHbg2FIzRQEJTu8\/NumkI4k0wH4\/r2OeI44DbY+30LfuCX\n8y6QzFh42sbdWz0mhTvZJ0Wbi27ZMUH71eaQcTlxm1uNM1Ht7PpYU9sCAwEAATAN\nBgkqhkiG9w0BAQ0FAAOCAgEAQ2ph48Wxt8eENnIIZ8joteJku1qCbMulzt4JxzhN\n\/CS0Baq5EmPUSln6vgHuzd2IGHV3T7yABxty44G6wsWgtAD2YmaT7LgLQMRn\/jqH\nLwNTQnHz5iDzqfHqdI4h+B90H2OaSvFFg5lEkg5nD7n\/QFzfjUJIlCx3F+1Xoao6\nj+m44RvEoNmDI6V1JCg2IVzm256W6P2kdGNP+ljrf8ubhiYOLEkXlUIgPE30R\/JE\njjjVQGu3rundPNHAsfssPOAJMc2xsO0piUrM5g2X9MGnaBZH3ccmCs7HMbq5oL5a\nQWvGPMjQ7AWJUfyBUWJKKYnIBWBrkfxGTsNY7ipA9BzALq5f4xdnSbxSIE3GgA78\n\/AqclOQM75KihxlZVrZDWifzZjMQwOWQeXUj9OJXKfIpZGiJPSa5A3oXqIvGtBjd\nneCJJkln6uHwhzIJPSPQSu\/dusCgb0rRlyAxaz5DV04o4WYj84w052YME5V\/46Me\niAoVwT6p4BsRsVWmZpvVcCeErQaIa5MOGaNjyQnQJNxNGW1eJ9NWyIUNl6gWqPzu\nlcNQLl265vVvri8C2CbEU7Bo0NNVZddMdGRaJ4hFVh\/\/6HukrzjtFoVTwBvwcMhm\n+z\/KncyA4nDUQdIGZ+vmGmBaxZriTzolKTrKifeVE4PSFkmrZ3XWIAyMVYP0OXv7\nVwE=\n-----END CERTIFICATE-----\n",
                "spPublicKey": "-----BEGIN PUBLIC KEY-----\nMIICIjANBgkqhkiG9w0BAQEFAAOCAg8AMIICCgKCAgEAwZDKI2rt8UYegLpPKWwt\noMZSX14+2JCgup7hvQHM4XVbXwjIPYzSqChh\/yX8TheUVIMV2US3fqarWuRye056\n+\/z3\/znmUXZ1B+Ajn+1+\/XdqC0liOoJb5CxlXDGLWM\/iIDH3eWWDgZy7+gX6GNHq\nxR6gvBUC4PJ1WlgnKMMqI7gW0GifKNbYnruyLufwhBMfj8FccJ6HZMGTMnIbrRsC\n7O5ryy\/ROiMkvjcw+oeOatg8X42oygAIxE13bH+zel+mjbTzgeY\/db2l9325K+Sg\nCZFdasGpMmBaDdXeecsFJoBsEN4N67hliZ0PqPUNyKhjs2BxagpkNzcRVRAO7769\nAJK1nmsktoXRX6Kev1Xma8hgTHq0j\/muvRl8E3Td2\/6xXfrVU5FRgjiN1Aoma5MB\n1dGOqiMGZpGuMnu721UaCl8ce3tmE\/Hs69VtIhWX\/0Pt3obMRZ4EBpGHrHpRC0za\nrMCRQGt+dJzOhIGskBT9wiYHuGnV4Ty96r4By4M0URzzS0d5BbJmZitv4zB4reEB\nj+u9+1K3BTOgrV1znMcE91K7VC0+rnpj5zikWdgSqb3KenAlzflHbg2FIzRQEJTu\n8\/NumkI4k0wH4\/r2OeI44DbY+30LfuCX8y6QzFh42sbdWz0mhTvZJ0Wbi27ZMUH7\n1eaQcTlxm1uNM1Ht7PpYU9sCAwEAAQ==\n-----END PUBLIC KEY-----\n",
                "refreshHostname": true
            },
            "userSettings": {
                "attributeMappings": {
                    "email": "Email",
                    "roles": "Roles",
                    "lastName": "Last Name",
                    "firstName": "First Name"
                },
                "overrideRbac": false
            }
        }
    },
    {
        "type": "syslog",
        "value": []
    },
    {
        "type": "proxy",
        "value": {
            "@context": "\/api\/3\/contexts\/Proxy",
            "@type": "Proxy",
            "toggle": false,
            "proxies": "{\"HTTP_PROXY\":{\"url\":\"\",\"is_enabled\":false,\"port\":null,\"username\":\"\",\"password\":\"\"},\"HTTPS_PROXY\":{\"url\":\"\",\"is_enabled\":false,\"port\":null,\"username\":\"\",\"password\":\"\"}}",
            "noProxy": [
                "localhost",
                "127.0.0.1"
            ],
            "other": [],
            "uuid": "c90e8c1b-cu11-as33-3sk-717199a2e182"
        }
    }
]